…
En el paquete también está disponible la función para calcular el exceso
de muertos en Perú y por departamentos por semana.

En este caso la información se calcula por semana. Hay dos “métodos”
disponibles. El método por default toma como referencia las primeras 11
semanas del 2020 (“M2020”), y el “alternativo” que usa el promedio de
muertos de los años 2017,2018, 2019 con la semana de comparación.

``` r
base=exceso_muertes(sinadef)[1]
#> [1] "Ojo: archivo actualizado al 2020-09-23 tomamos referencia hasta la semana 38"
head(base,30)
#> [[1]]
#> # A tibble: 38 x 6
#>    semana  year numero_fallecidos Esperado Exceso fecha_ultima
#>     <dbl> <dbl>             <int>    <dbl>  <dbl> <date>      
#>  1      1  2020              1233     1233      0 2020-01-04  
#>  2      2  2020              2187     2187      0 2020-01-11  
#>  3      3  2020              2130     2130      0 2020-01-18  
#>  4      4  2020              2117     2117      0 2020-01-25  
#>  5      5  2020              2011     2011      0 2020-02-01  
#>  6      6  2020              2142     2142      0 2020-02-08  
#>  7      7  2020              2119     2119      0 2020-02-15  
#>  8      8  2020              2107     2107      0 2020-02-22  
#>  9      9  2020              2211     2211      0 2020-02-29  
#> 10     10  2020              2210     2210      0 2020-03-07  
#> # … with 28 more rows
```
…
